Sequence	Convex hull volume (m³)
17DRP5sb8fy	320.1144483087335
1LXtFkjw3qL	2034.2914310658282
1pXnuDYAj8r	2692.5396561869006
29hnd4uzFmX	587.4597100431424
2azQ1b91cZZ	4330.864545015271
2n8kARJN3HM	3574.6681475411197
2t7WUuJeko7	320.67466668026736
5LpN3gDmAk7	2648.1489958961283
5ZKStnWn8Zo	3080.4533687505036
5q7pvUzZiYa	2259.2263800312176
759xd9YjKW5	2380.1215741544183
7y3sRwLe3Va	2569.443933647171
8194nk5LbLH	825.7821296106164
82sE5b5pLXE	1596.2187515789046
8WUmhLawc2A	1297.140983605389
ARNzJeq3xxb	1656.208087725617
B6ByNegPMKs	11639.81211881277
D7G3Y4RVNrH	333.20784317693034
D7N2EKCX4Sj	5490.260595091569
E9uDoFAP3SH	12378.568286369738
EDJbREhghzL	1120.3407411942496
EU6Fwq7SyZv	1548.6392882340451
GdvgFV5R1Z5	115.30536943778696
HxpKQynjfin	135.25166925275255
JF19kD82Mey	1044.2359644028834
JeFG25nYj2p	1048.6298992187571
JmbYfDe2QKZ	844.5120124269829
PX4nDJXEHrG	5050.7450592521345
Pm6F8kyY3z2	639.362698100882
PuKPg4mmafe	6221.94898184388
QUCTc6BB5sX	6456.141171640316
RPmz2sHmrrY	258.708365716703
S9hNv5qa7GM	1273.1444000956149
SN83YJsR3w2	7795.094804515445
TbHJrupSAjP	1770.6744894683648
ULsKaCPVFJR	1513.623279023721
UwV83HsGsw3	2966.855606656106
Uxmj2M2itWa	4112.958467115027
V2XKFyX4ASd	1804.0789087198355
VFuaQ6m2Qom	7696.267888753541
VLzqgDo317F	5775.0444210339565
VVfe2KiqLaN	1638.678564478546
Vt2qJdWjCF2	8340.058611891794
Vvot9Ly1tCj	4009.0070199794595
VzqfbhrpDEA	6605.872005458159
WYY7iVyf5p8	777.5784724395073
X7HyMhZNoso	2236.920509310924
XcA2TqTSSAj	2443.370335386713
YFuZgdQ5vWj	912.5076654480004
YVUC4YcDtcY	1370.1389969460474
YmJkqBEsHnH	543.4150579040818
Z6MFQCViBuw	4775.826735614477
ZMojNkEp431	2360.953832151109
aayBHfsNo7d	1433.401015089447
ac26ZMwG7aT	3765.0263136259914
b8cTxDM8gDG	3044.626840912011
cV4RVeZvu5T	1253.786582744485
dhjEzFoUFzH	12671.315396767935
e9zR4mvMWw7	1384.2458029562226
fzynW3qQPVF	7390.630810824914
gTV8FGcVJC9	9061.275234701909
gYvKGZ5eRqb	3187.339860927478
gZ6f7yhEvPG	178.90023871958186
gxdoqLR6rwA	15872.508432310358
i5noydFURQK	665.0863558123135
jh4fc5c5qoQ	846.1344944740097
jtcxE69GiFV	3610.0775878564027
kEZ7cmS4wCh	7200.196181080915
mJXqzFtmKg4	3156.0366096502535
oLBMNvg9in8	1188.2157602911916
p5wJjkQkbXX	3801.719603144795
pLe4wQe7qrG	379.0994766633586
pRbA3pwrgk9	1283.2318131637135
pa4otMbVnkk	6449.112930298624
q9vSo1VnCiC	1437.4260502678967
qoiz87JEwZ2	1577.5858292873402
r1Q1Z4BcV1o	6334.010211017583
r47D5H71a5s	1146.6525080585275
rPc6DW4iMge	1982.1878867650967
rqfALeAoiTq	1655.4468637893578
s8pcmisQ38h	1654.3832318710558
sKLMLpTHeUy	1830.3485963888638
sT4fr6TAbpF	1638.0883598459561
uNb9QFRL6hY	4967.605766647864
ur6pFq6Qu1A	3644.512671227011
vyrNrziPKCB	10326.744912484322
wc2JMjhGNzB	4236.09462343722
x8F5xyUWy9e	643.3932037122186
yqstnuAEVhm	1610.503031363744
zsNo4HB9uLZ	724.9986401690172
